{
    "apiVersion": "v1",
    "kind": "Namespace",
    "metadata": {
        "annotations": {
            "kubectl.kubernetes.io/last-applied-configuration": "{\"apiVersion\":\"v1\",\"kind\":\"Namespace\",\"metadata\":{\"annotations\":{},\"name\":\"tekton-pipelines\"}}\n"
        },
        "creationTimestamp": "2020-01-25T06:29:50Z",
        "deletionTimestamp": "2020-03-03T11:00:19Z",
        "name": "tekton-pipelines",
        "resourceVersion": "32024542",
        "selfLink": "/api/v1/namespaces/tekton-pipelines",
        "uid": "a96b2ecf-e809-4c6a-8d3b-534eb15d185c"
    },
    "spec": {
        "finalizers": [
            
        ]
    },
    "status": {
        "conditions": [
            {
                "lastTransitionTime": "2020-03-03T11:00:24Z",
                "message": "Discovery failed for some groups, 1 failing: unable to retrieve the complete list of server APIs: metrics.k8s.io/v1beta1: the server is currently unable to handle the request",
                "reason": "DiscoveryFailed",
                "status": "True",
                "type": "NamespaceDeletionDiscoveryFailure"
            },
            {
                "lastTransitionTime": "2020-03-03T11:00:25Z",
                "message": "All legacy kube types successfully parsed",
                "reason": "ParsedGroupVersions",
                "status": "False",
                "type": "NamespaceDeletionGroupVersionParsingFailure"
            },
            {
                "lastTransitionTime": "2020-03-03T11:00:25Z",
                "message": "All content successfully deleted",
                "reason": "ContentDeleted",
                "status": "False",
                "type": "NamespaceDeletionContentFailure"
            }
        ],
        "phase": "Terminating"
    }
}
